{
  "prepare_queue": {
    "installed": [],
    "uninstalled": []
  },
  "config_munge": {
    "files": {}
  },
  "installed_plugins": {
    "cordova-plugin-battery-status": {
      "PACKAGE_NAME": "com.alice.car"
    },
    "cordova-plugin-bluetooth-serial": {
      "PACKAGE_NAME": "com.alice.car"
    },
    "cordova-plugin-camera": {
      "PACKAGE_NAME": "com.alice.car"
    },
    "cordova-plugin-console": {
      "PACKAGE_NAME": "com.alice.car"
    },
    "cordova-plugin-contacts": {
      "PACKAGE_NAME": "com.alice.car"
    },
    "cordova-plugin-device": {
      "PACKAGE_NAME": "com.alice.car"
    },
    "cordova-plugin-device-motion": {
      "PACKAGE_NAME": "com.alice.car"
    },
    "cordova-plugin-device-orientation": {
      "PACKAGE_NAME": "com.alice.car"
    },
    "cordova-plugin-dialogs": {
      "PACKAGE_NAME": "com.alice.car"
    },
    "cordova-plugin-file-transfer": {
      "PACKAGE_NAME": "com.alice.car"
    },
    "cordova-plugin-geolocation": {
      "PACKAGE_NAME": "com.alice.car"
    },
    "cordova-plugin-globalization": {
      "PACKAGE_NAME": "com.alice.car"
    },
    "cordova-plugin-inappbrowser": {
      "PACKAGE_NAME": "com.alice.car"
    },
    "cordova-plugin-media": {
      "PACKAGE_NAME": "com.alice.car"
    },
    "cordova-plugin-media-capture": {
      "PACKAGE_NAME": "com.alice.car"
    },
    "cordova-plugin-network-information": {
      "PACKAGE_NAME": "com.alice.car"
    },
    "cordova-plugin-splashscreen": {
      "PACKAGE_NAME": "com.alice.car"
    },
    "cordova-plugin-statusbar": {
      "PACKAGE_NAME": "com.alice.car"
    },
    "cordova-plugin-vibration": {
      "PACKAGE_NAME": "com.alice.car"
    },
    "cordova-plugin-whitelist": {
      "PACKAGE_NAME": "com.alice.car"
    }
  },
  "dependent_plugins": {
    "cordova-plugin-file": {
      "PACKAGE_NAME": "com.alice.car"
    }
  }
}